…
A little explanation will be helpful here. In `.test/data/samples.csv` I
have a simple example:

``` r
library(tidyverse)

samples <- read_csv(".test/data/samples.csv")

samples
```

    ## # A tibble: 33 × 8
    ##    sample Marker_Sets  NMFS_DNA_ID Sample_ID Sample_Name Sample_Project  fq1    
    ##    <chr>  <chr>        <chr>       <chr>     <chr>       <chr>           <chr>  
    ##  1 s0001  TRANSITION,… T194879     CH_33547  CH-33547    CH_microhaps_t… CH-335…
    ##  2 s0002  TRANSITION,… T194887     CH_33548  CH-33548    CH_microhaps_t… CH-335…
    ##  3 s0003  TRANSITION,… T194895     CH_33549  CH-33549    CH_microhaps_t… CH-335…
    ##  4 s0004  TRANSITION,… T194903     CH_33550  CH-33550    CH_microhaps_t… CH-335…
    ##  5 s0005  TRANSITION,… T194911     CH_33551  CH-33551    CH_microhaps_t… CH-335…
    ##  6 s0006  TRANSITION,… T194919     CH_33552  CH-33552    CH_microhaps_t… CH-335…
    ##  7 s0007  TRANSITION,… T194927     CH_33553  CH-33553    CH_microhaps_t… CH-335…
    ##  8 s0008  TRANSITION,… T194935     CH_33554  CH-33554    CH_microhaps_t… CH-335…
    ##  9 s0009  TRANSITION,… T194943     CH_33555  CH-33555    CH_microhaps_t… CH-335…
    ## 10 s0010  TRANSITION,… T194951     CH_33556  CH-33556    CH_microhaps_t… CH-335…
    ## # … with 23 more rows, and 1 more variable: fq2 <chr>
…
``` r
units <- samples %>%
  mutate(Markers = str_split(Marker_Sets, "\\s*,\\s*")) %>%
  unnest(cols = Markers) %>%
  select(-Marker_Sets) %>%
  select(Sample_ID, Markers, everything())
```

Those have been stored in `.test/data/units.csv` and look like this:

``` r
read_csv(".test/data/units.csv")
```

    ## # A tibble: 46 × 2
    ##    sample Markers   
    ##    <chr>  <chr>     
    ##  1 s0001  TRANSITION
    ##  2 s0001  ROSA      
    ##  3 s0002  TRANSITION
    ##  4 s0002  ROSA      
    ##  5 s0003  TRANSITION
    ##  6 s0003  ROSA      
    ##  7 s0004  TRANSITION
    ##  8 s0004  ROSA      
    ##  9 s0005  TRANSITION
    ## 10 s0005  ROSA      
    ## # … with 36 more rows
…
